Global temperature record
…
plot.

This gets tedious very quickly. Thankfully, gratia contains some functions to make this much easier.

We start by creating a data slice, the values of covariates we want to predict at

# generate new data to predict at
newd <- m_gtemp |>
  data_slice(
    Year = evenly(Year, n = 200)
  )
newd

# A tibble: 200 × 1
    Year
   <dbl>
 1 1850 
 2 1851.
 3 1852.
 4 1853.
 5 1853.
 6 1854.
 7 1855.
 8 1856.
 9 1857.
10 1858.
# ℹ 190 more rows

Next, we complete steps 2–4 using fitted_values()

# use fitted_values to get predictions on the response scale
fv_gtemp <- m_gtemp |>
  fitted_values(
    data = newd, scale = "response"
  )
fv_gtemp

# A tibble: 200 × 6
    .row  Year .fitted    .se .lower_ci .upper_ci
   <int> <dbl>   <dbl>  <dbl>     <dbl>     <dbl>
 1     1 1850   -0.245 0.0527    -0.349    -0.142
 2     2 1851.  -0.248 0.0493    -0.345    -0.152
 3     3 1852.  -0.251 0.0460    -0.341    -0.161
 4     4 1853.  -0.254 0.0428    -0.338    -0.170
 5     5 1853.  -0.257 0.0398    -0.335    -0.179
 6     6 1854.  -0.260 0.0370    -0.332    -0.187
 7     7 1855.  -0.263 0.0345    -0.330    -0.195
 8     8 1856.  -0.265 0.0324    -0.329    -0.202
 9     9 1857.  -0.268 0.0306    -0.328    -0.208
10    10 1858.  -0.270 0.0291    -0.327    -0.213
# ℹ 190 more rows
…
