Generalized Additive Models
…
[File format](https://www.metoffice.gov.uk/hadobs/hadcrut4/data/current/series_format.html)

---

# HadCRUT data set

```r
gtemp
```

```
## # A tibble: 172 × 2
##     Year Temperature
##    <dbl>       <dbl>
##  1  1850      -0.336
##  2  1851      -0.159
##  3  1852      -0.107
##  4  1853      -0.177
##  5  1854      -0.071
##  6  1855      -0.19 
##  7  1856      -0.378
##  8  1857      -0.405
##  9  1858      -0.4  
## 10  1859      -0.215
## # … with 162 more rows
```
…
# South Pole CO<sub>2</sub>

---

# Atmospheric CO<sub>2</sub>

```r
library("gratia")
south <- read_csv(here("data", "south_pole.csv"), col_types = "ddd")
south
```

```
## # A tibble: 507 × 3
##      co2 c.month month
##    <dbl>   <dbl> <dbl>
##  1   NA        1     1
##  2   NA        2     2
##  3   NA        3     3
##  4   NA        4     4
##  5   NA        5     5
##  6  313.       6     6
##  7   NA        7     7
##  8   NA        8     8
##  9  314.       9     9
## 10   NA       10    10
## # … with 497 more rows
```
…
---

# Atmospheric CO<sub>2</sub> &mdash; predict

Predict the next 36 months

```r
new_df <- with(south, tibble(c.month = 1:(nrow(south) + 36)))
fv <- fitted_values(m_co2, data = new_df, scale = "response")
fv
```

```
## # A tibble: 543 × 5
##    c.month fitted     se lower upper
##      <int>  <dbl>  <dbl> <dbl> <dbl>
##  1       1   312. 0.290   311.  313.
##  2       2   312. 0.247   312.  313.
##  3       3   312. 0.205   312.  313.
##  4       4   313. 0.164   312.  313.
##  5       5   313. 0.125   313.  313.
##  6       6   313. 0.0901  313.  313.
##  7       7   313. 0.0677  313.  314.
##  8       8   314. 0.0662  314.  314.
##  9       9   314. 0.0759  314.  314.
## 10      10   314. 0.0807  314.  314.
## # … with 533 more rows
```
…
---

# Atmospheric CO<sub>2</sub> &mdash; predict

```r
nr <- nrow(south)
new_df <- with(south,
               tibble(c.month = 1:(nr + 36),
                      month = rep(seq_len(12), length = nr + 36)))
fv2 <- fitted_values(m2_co2, data = new_df, scale = "response")
fv2
```

```
## # A tibble: 543 × 6
##    c.month month fitted     se lower upper
##      <int> <int>  <dbl>  <dbl> <dbl> <dbl>
##  1       1     1   313. 0.296   312.  314.
##  2       2     2   313. 0.255   312.  313.
##  3       3     3   313. 0.214   312.  313.
##  4       4     4   313. 0.176   312.  313.
##  5       5     5   313. 0.137   313.  313.
##  6       6     6   313. 0.103   313.  313.
##  7       7     7   313. 0.0827  313.  314.
##  8       8     8   314. 0.0747  314.  314.
##  9       9     9   314. 0.0785  314.  314.
## 10      10    10   314. 0.0845  314.  314.
## # … with 533 more rows
```
…
---

# Simulated Motorcycle Accident

A data frame giving a series of measurements of head acceleration in a simulated motorcycle accident, used to test crash helmets

```r
library("dplyr")
data(mcycle, package = "MASS")
mcycle <- as_tibble(mcycle)
mcycle
```

```
## # A tibble: 133 × 2
##    times accel
##    <dbl> <dbl>
##  1   2.4   0  
##  2   2.6  -1.3
##  3   3.2  -2.7
##  4   3.6   0  
##  5   4    -2.7
##  6   6.2  -2.7
##  7   6.6  -2.7
##  8   6.8  -1.3
##  9   7.8  -2.7
## 10   8.2  -2.7
## # … with 123 more rows
```
…
---

# TPRS basis

```r
new_df <- with(mcycle, tibble(times = evenly(times, n = 100)))
bfun <- basis(s(times), data = new_df)
bfun
```

```
## # A tibble: 1,000 × 5
##    smooth   by_variable bf     value times
##    <chr>    <chr>       <fct>  <dbl> <dbl>
##  1 s(times) <NA>        1     -1.64    2.4
##  2 s(times) <NA>        2     -0.769   2.4
##  3 s(times) <NA>        3     -1.81    2.4
##  4 s(times) <NA>        4     -1.04    2.4
##  5 s(times) <NA>        5     -1.95    2.4
##  6 s(times) <NA>        6     -1.15    2.4
##  7 s(times) <NA>        7      2.02    2.4
##  8 s(times) <NA>        8     -1.22    2.4
##  9 s(times) <NA>        9      1       2.4
## 10 s(times) <NA>        10    -1.71    2.4
## # … with 990 more rows
```
…
<img src="index_files/figure-html/unnamed-chunk-6-1.svg" width="85%" style="display: block; margin: auto;" />

---

# TPRS basis

```r
m <-  gam(accel ~ s(times), dat = mcycle, method = "REML")
S <- penalty(m, smooth = "s(times)")
S
```

```
## # A tibble: 81 × 6
##    smooth   type  penalty  row   col    value
##    <chr>    <chr> <chr>    <chr> <chr>  <dbl>
##  1 s(times) TPRS  s(times) F1    F1    13.1  
##  2 s(times) TPRS  s(times) F1    F2     2.71 
##  3 s(times) TPRS  s(times) F1    F3     6.61 
##  4 s(times) TPRS  s(times) F1    F4     2.05 
##  5 s(times) TPRS  s(times) F1    F5     6.49 
##  6 s(times) TPRS  s(times) F1    F6    -2.38 
##  7 s(times) TPRS  s(times) F1    F7     7.97 
##  8 s(times) TPRS  s(times) F1    F8     0.450
##  9 s(times) TPRS  s(times) F1    F9     0    
## 10 s(times) TPRS  s(times) F2    F1     2.71 
## # … with 71 more rows
```
…
<img src="index_files/figure-html/draw-mcycle-1.svg" width="90%" style="display: block; margin: auto;" />

---

# Plotting smooths

```r
df <- data_sim("eg1", n = 1000, seed = 42)
df
```

```
## # A tibble: 1,000 × 10
##          y    x0     x1    x2    x3     f    f0    f1          f2    f3
##      <dbl> <dbl>  <dbl> <dbl> <dbl> <dbl> <dbl> <dbl>       <dbl> <dbl>
##  1  6.49   0.915 0.848  0.990 0.274  5.98 0.529  5.46 0.000000183     0
##  2  4.32   0.937 0.0627 0.438 0.944  4.88 0.393  1.13 3.35            0
##  3  6.17   0.286 0.820  0.700 0.446  9.62 1.57   5.15 2.90            0
##  4  0.0454 0.830 0.539  0.889 0.542  4.06 1.02   2.94 0.102           0
##  5  2.50   0.642 0.499  0.834 0.162  5.08 1.80   2.71 0.566           0
##  6  6.13   0.519 0.0222 0.734 0.693  5.40 2.00   1.05 2.36            0
##  7  7.50   0.737 0.554  0.647 0.797  7.80 1.47   3.03 3.30            0
##  8  4.03   0.135 0.720  0.843 0.774  5.50 0.821  4.22 0.459           0
##  9  8.95   0.657 0.236  0.160 0.213 10.5  1.76   1.60 7.15            0
## 10 13.2    0.705 0.812  0.364 0.204 12.1  1.60   5.07 5.43            0
## # … with 990 more rows
```
…
