Modelling a lactation curve
…
Next we need to bind these together and add a column indicating which model is which

cond_vals <- cond_glm |>
  bind_rows(cond_gam) |>
  mutate(
    model = factor(
      rep(c("GLM", "GAM"), each = nrow(cond_glm))
    )
  )

cond_vals

# A tibble: 200 × 7
    .row  week .fitted    .se .lower_ci .upper_ci model
   <int> <dbl>   <dbl>  <dbl>     <dbl>     <dbl> <fct>
 1     1  1      0.221 0.133      0.170     0.287 GLM  
 2     2  1.34   0.285 0.110      0.230     0.354 GLM  
 3     3  1.69   0.344 0.0937     0.286     0.413 GLM  
 4     4  2.03   0.397 0.0810     0.339     0.465 GLM  
 5     5  2.37   0.445 0.0711     0.387     0.511 GLM  
 6     6  2.72   0.488 0.0632     0.431     0.552 GLM  
 7     7  3.06   0.526 0.0569     0.471     0.588 GLM  
 8     8  3.40   0.560 0.0519     0.506     0.620 GLM  
 9     9  3.75   0.590 0.0480     0.537     0.648 GLM  
10    10  4.09   0.616 0.0449     0.565     0.673 GLM  
# ℹ 190 more rows
…
