Weights of chicks
…
           mgcv          gratia         ggplot2           dplyr         janitor 
           TRUE            TRUE            TRUE            TRUE            TRUE 
marginaleffects 
           TRUE 

and then load the data. The data are an example data set that comes with R, so we load it using data() and then make it tidy

data(ChickWeight)
cw <- ChickWeight |>
  as_tibble() |>
  janitor::clean_names()
cw

# A tibble: 578 × 4
   weight  time chick diet 
    <dbl> <dbl> <ord> <fct>
 1     42     0 1     1    
 2     51     2 1     1    
 3     59     4 1     1    
 4     64     6 1     1    
 5     76     8 1     1    
 6     93    10 1     1    
 7    106    12 1     1    
 8    125    14 1     1    
 9    149    16 1     1    
10    171    18 1     1    
# ℹ 568 more rows
…
