Generalized Additive Models
…
Provide `newdata` with a data frame of values of covariates

---

# `predict()`

``` r
new_year <- with(shrimp, tibble(year = seq(min(year), max(year), length.out = 100)))
pred <- predict(m_rich, newdata = new_year, se.fit = TRUE, type = 'link')
pred <- bind_cols(new_year, as_tibble(as.data.frame(pred)))
pred
```

```
## # A tibble: 100 × 3
##     year   fit  se.fit
##    <dbl> <dbl>   <dbl>
##  1 2005   3.05 0.0100 
##  2 2005.  3.05 0.00901
##  3 2005.  3.06 0.00830
##  4 2005.  3.06 0.00792
##  5 2005.  3.06 0.00786
##  6 2005.  3.06 0.00807
##  7 2006.  3.07 0.00844
##  8 2006.  3.07 0.00887
##  9 2006.  3.07 0.00926
## 10 2006.  3.08 0.00955
## # ℹ 90 more rows
```
---

# `predict()` &rarr; response scale

``` r
ilink <- inv_link(m_rich)                         # inverse link function
crit <- qnorm((1 - 0.89) / 2, lower.tail = FALSE) # or just `crit <- 2`
pred <- mutate(pred, richness = ilink(fit),
               lwr = ilink(fit - (crit * se.fit)), # lower...
               upr = ilink(fit + (crit * se.fit))) # upper credible interval
pred
```

```
## # A tibble: 100 × 6
##     year   fit  se.fit richness   lwr   upr
##    <dbl> <dbl>   <dbl>    <dbl> <dbl> <dbl>
##  1 2005   3.05 0.0100      21.1  20.8  21.4
##  2 2005.  3.05 0.00901     21.2  20.9  21.5
##  3 2005.  3.06 0.00830     21.2  20.9  21.5
##  4 2005.  3.06 0.00792     21.3  21.0  21.6
##  5 2005.  3.06 0.00786     21.4  21.1  21.6
##  6 2005.  3.06 0.00807     21.4  21.1  21.7
##  7 2006.  3.07 0.00844     21.5  21.2  21.8
##  8 2006.  3.07 0.00887     21.6  21.3  21.9
##  9 2006.  3.07 0.00926     21.6  21.3  22.0
## 10 2006.  3.08 0.00955     21.7  21.4  22.0
## # ℹ 90 more rows
```
…
# `predict()` for space and time

This idea is very general;  spatiotemporal model needs a grid of x,y coordinates for each year

``` r
sp_new <- with(shrimp, expand.grid(x = evenly(x, n = 100), y = evenly(y, n = 100),
                                   year = unique(year)))
sp_pred <- predict(m_spt, newdata = sp_new, se.fit = TRUE) # link scale is default
sp_pred <- bind_cols(as_tibble(sp_new), as_tibble(as.data.frame(sp_pred)))
sp_pred
```

```
## # A tibble: 100,000 × 5
##          x        y  year   fit se.fit
##      <dbl>    <dbl> <int> <dbl>  <dbl>
##  1 428238. 5078244.  2005  3.34  1.06 
##  2 436886. 5078244.  2005  3.32  1.06 
##  3 445535. 5078244.  2005  3.31  1.05 
##  4 454183. 5078244.  2005  3.29  1.04 
##  5 462831. 5078244.  2005  3.26  1.03 
##  6 471479. 5078244.  2005  3.24  1.02 
##  7 480127. 5078244.  2005  3.21  1.01 
##  8 488775. 5078244.  2005  3.18  1.00 
##  9 497423. 5078244.  2005  3.15  0.994
## 10 506071. 5078244.  2005  3.12  0.985
## # ℹ 99,990 more rows
```
---

# `predict()` &rarr; response scale

``` r
ilink <- inv_link(m_spt)
too_far <- exclude.too.far(sp_pred$x, sp_pred$y, shrimp$x, shrimp$y, dist = 0.1)
sp_pred <- sp_pred %>% mutate(biomass = ilink(fit),
                              biomass = case_when(too_far ~ NA_real_,
                                                  TRUE ~ biomass))
sp_pred
```

```
## # A tibble: 100,000 × 6
##          x        y  year   fit se.fit biomass
##      <dbl>    <dbl> <int> <dbl>  <dbl>   <dbl>
##  1 428238. 5078244.  2005  3.34  1.06       NA
##  2 436886. 5078244.  2005  3.32  1.06       NA
##  3 445535. 5078244.  2005  3.31  1.05       NA
##  4 454183. 5078244.  2005  3.29  1.04       NA
##  5 462831. 5078244.  2005  3.26  1.03       NA
##  6 471479. 5078244.  2005  3.24  1.02       NA
##  7 480127. 5078244.  2005  3.21  1.01       NA
##  8 488775. 5078244.  2005  3.18  1.00       NA
##  9 497423. 5078244.  2005  3.15  0.994      NA
## 10 506071. 5078244.  2005  3.12  0.985      NA
## # ℹ 99,990 more rows
```
…
---

# Max species abundance

We have measurements of the abundance of a particular species along an environmental gradient

``` r
spp_url <- "https://bit.ly/spp-gradient"
gradient <- read_csv(spp_url, col_types = "dd")
gradient
```

```
## # A tibble: 100 × 2
##    abundance environment
##        <dbl>       <dbl>
##  1         0           1
##  2         1           2
##  3         3           3
##  4         8           4
##  5         4           5
##  6        12           6
##  7        15           7
##  8        13           8
##  9        11           9
## 10        15          10
## # ℹ 90 more rows
```
…
Weights of chicks and effect of diet

``` r
data(ChickWeight)
cw <- ChickWeight |>
  as_tibble() |>
  janitor::clean_names() |>
  mutate(
    chick = factor(chick, ordered = FALSE)
  )
cw
```

```
## # A tibble: 578 × 4
##    weight  time chick diet 
##     <dbl> <dbl> <fct> <fct>
##  1     42     0 1     1    
##  2     51     2 1     1    
##  3     59     4 1     1    
##  4     64     6 1     1    
##  5     76     8 1     1    
##  6     93    10 1     1    
##  7    106    12 1     1    
##  8    125    14 1     1    
##  9    149    16 1     1    
## 10    171    18 1     1    
## # ℹ 568 more rows
```
…
We could average the partial derivatives (slopes) for the observed data where for each observation we compare the predicted value with the `diet` switch flicked into different positions

.row[

.col-6[

.small[

``` r
cw
```

```
## # A tibble: 578 × 4
##    weight  time chick diet 
##     <dbl> <dbl> <fct> <fct>
##  1     42     0 1     1    
##  2     51     2 1     1    
##  3     59     4 1     1    
##  4     64     6 1     1    
##  5     76     8 1     1    
##  6     93    10 1     1    
##  7    106    12 1     1    
##  8    125    14 1     1    
##  9    149    16 1     1    
## 10    171    18 1     1    
## # ℹ 568 more rows
```
…
---
# Averaging: step 2

.row[
.col-6[
.small[

``` r
p_diet2
```

```
## # A tibble: 578 × 11
##     .row rowid rowidcf chick  time weight diet  .fitted    .se .lower_ci
##    <int> <int>   <int> <fct> <dbl>  <dbl> <fct>   <dbl>  <dbl>     <dbl>
##  1     1     1       1 1         0     42 2        43.6 0.114       34.9
##  2     2     2       2 1         2     51 2        51.8 0.0998      42.6
##  3     3     3       3 1         4     59 2        61.3 0.0903      51.4
##  4     4     4       4 1         6     64 2        75.3 0.0831      64.0
##  5     5     5       5 1         8     76 2        90.2 0.0781      77.4
##  6     6     6       6 1        10     93 2       109.  0.0762      93.5
##  7     7     7       7 1        12    106 2       132.  0.0767     113. 
##  8     8     8       8 1        14    125 2       153.  0.0798     131. 
##  9     9     9       9 1        16    149 2       185.  0.0859     157. 
## 10    10    10      10 1        18    171 2       224.  0.0940     186. 
## # ℹ 568 more rows
## # ℹ 1 more variable: .upper_ci <dbl>
```
]
]
.col-6[
.small[

``` r
p_diet2
```

```
## # A tibble: 578 × 11
##     .row rowid rowidcf chick  time weight diet  .fitted    .se .lower_ci
##    <int> <int>   <int> <fct> <dbl>  <dbl> <fct>   <dbl>  <dbl>     <dbl>
##  1     1     1       1 1         0     42 2        43.6 0.114       34.9
##  2     2     2       2 1         2     51 2        51.8 0.0998      42.6
##  3     3     3       3 1         4     59 2        61.3 0.0903      51.4
##  4     4     4       4 1         6     64 2        75.3 0.0831      64.0
##  5     5     5       5 1         8     76 2        90.2 0.0781      77.4
##  6     6     6       6 1        10     93 2       109.  0.0762      93.5
##  7     7     7       7 1        12    106 2       132.  0.0767     113. 
##  8     8     8       8 1        14    125 2       153.  0.0798     131. 
##  9     9     9       9 1        16    149 2       185.  0.0859     157. 
## 10    10    10      10 1        18    171 2       224.  0.0940     186. 
## # ℹ 568 more rows
## # ℹ 1 more variable: .upper_ci <dbl>
```
…
