Generalized Additive Models
…
.center[
<img src="index_files/figure-html/draw-mcycle-1.svg" width="90%" />
]

---

# Derivatives of `s(times)`

```r
fd <- derivatives(m, type = "central", unconditional = TRUE)
fd
```

```
## # A tibble: 200 × 8
##    smooth   var    data derivative    se  crit lower upper
##    <chr>    <chr> <dbl>      <dbl> <dbl> <dbl> <dbl> <dbl>
##  1 s(times) times  2.40      -2.16  3.30  1.96 -8.62  4.30
##  2 s(times) times  2.68      -2.15  3.29  1.96 -8.60  4.31
##  3 s(times) times  2.95      -2.12  3.28  1.96 -8.55  4.31
##  4 s(times) times  3.23      -2.06  3.26  1.96 -8.45  4.32
##  5 s(times) times  3.51      -1.98  3.22  1.96 -8.29  4.33
##  6 s(times) times  3.79      -1.86  3.17  1.96 -8.08  4.35
##  7 s(times) times  4.06      -1.72  3.11  1.96 -7.81  4.37
##  8 s(times) times  4.34      -1.55  3.03  1.96 -7.48  4.38
##  9 s(times) times  4.62      -1.36  2.93  1.96 -7.10  4.39
## 10 s(times) times  4.90      -1.14  2.82  1.96 -6.67  4.40
## # … with 190 more rows
```
…
# Galveston Bay

```r
galveston <- read_csv(here('data', 'galveston.csv')) %>%
    mutate(datetime = as.POSIXct(paste(DATE, TIME),
                                 format = '%m/%d/%y %H:%M', tz = "CDT"),
           STATION_ID = factor(STATION_ID),
           DoY = as.numeric(format(datetime, format = '%j')),
           ToD = as.numeric(format(datetime, format = '%H')) +
               (as.numeric(format(datetime, format = '%M')) / 60))
galveston
```

```
## # A tibble: 15,276 × 13
##    STATION_ID DATE     TIME   LATITUDE LONGITUDE  YEAR MONTH   DAY SEASON
##    <fct>      <chr>    <time>    <dbl>     <dbl> <dbl> <dbl> <dbl> <chr> 
##  1 13296      6/20/91  11:04      29.5     -94.8  1991     6    20 Summer
##  2 13296      3/17/92  09:30      29.5     -94.8  1992     3    17 Spring
##  3 13296      9/23/91  11:24      29.5     -94.8  1991     9    23 Fall  
##  4 13296      9/23/91  11:24      29.5     -94.8  1991     9    23 Fall  
##  5 13296      6/20/91  11:04      29.5     -94.8  1991     6    20 Summer
##  6 13296      12/17/91 10:15      29.5     -94.8  1991    12    17 Winter
##  7 13296      6/29/92  11:17      29.5     -94.8  1992     6    29 Summer
##  8 13305      3/24/87  11:53      29.6     -95.0  1987     3    24 Spring
##  9 13305      4/2/87   13:39      29.6     -95.0  1987     4     2 Spring
## 10 13305      8/11/87  15:25      29.6     -95.0  1987     8    11 Summer
## # … with 15,266 more rows, and 4 more variables: MEASUREMENT <dbl>,
## #   datetime <dttm>, DoY <dbl>, ToD <dbl>
```
…
