Generalized Additive Models
…
[File format](https://www.metoffice.gov.uk/hadobs/hadcrut4/data/current/series_format.html)

---

# HadCRUT data set

``` r
gtemp
```

```
## # A tibble: 172 × 2
##     Year Temperature
##    <dbl>       <dbl>
##  1  1850      -0.336
##  2  1851      -0.159
##  3  1852      -0.107
##  4  1853      -0.177
##  5  1854      -0.071
##  6  1855      -0.19 
##  7  1856      -0.378
##  8  1857      -0.405
##  9  1858      -0.4  
## 10  1859      -0.215
## # ℹ 162 more rows
```
…
