Generalized Additive Models
…
---

# Prediction intervals

We sample from the posterior distribution of the model and the sampling distribution of the response

``` r
ps <- posterior_samples(m, n = 10000, data = ds, seed = 24,
  unconditional = TRUE) |>
  left_join(ds, by = join_by(.row == .row))
ps
```

```
## # A tibble: 2,000,000 × 4
##     .row .draw .response       x
##    <int> <int>     <dbl>   <dbl>
##  1     1     1  -1.30    0.00129
##  2     2     1  -0.0136  0.00629
##  3     3     1   0.0662  0.0113 
##  4     4     1  -0.748   0.0163 
##  5     5     1   0.896   0.0213 
##  6     6     1   0.509   0.0263 
##  7     7     1   0.891   0.0313 
##  8     8     1   0.176   0.0363 
##  9     9     1  -0.00336 0.0413 
## 10    10     1   1.07    0.0463 
## # ℹ 1,999,990 more rows
```
…
---

# Prediction intervals

``` r
p_int
```

```
## # A tibble: 200 × 5
##     .row  .q2.5    .q50 .q97.5       x
##    <int>  <dbl>   <dbl>  <dbl>   <dbl>
##  1     1 -2.84  -0.844    1.24 0.00129
##  2     2 -2.70  -0.647    1.40 0.00629
##  3     3 -2.50  -0.434    1.62 0.0113 
##  4     4 -2.24  -0.209    1.82 0.0163 
##  5     5 -2.04  -0.0183   2.02 0.0213 
##  6     6 -1.81   0.194    2.25 0.0263 
##  7     7 -1.60   0.392    2.42 0.0313 
##  8     8 -1.37   0.601    2.60 0.0363 
##  9     9 -1.20   0.829    2.84 0.0413 
## 10    10 -0.939  1.06     3.04 0.0463 
## # ℹ 190 more rows
```
…
Weights of chicks and effect of diet

``` r
data(ChickWeight)
cw <- ChickWeight |>
  as_tibble() |>
  janitor::clean_names() |>
  mutate(
    chick = factor(chick, ordered = FALSE)
  )
cw
```

```
## # A tibble: 578 × 4
##    weight  time chick diet 
##     <dbl> <dbl> <fct> <fct>
##  1     42     0 1     1    
##  2     51     2 1     1    
##  3     59     4 1     1    
##  4     64     6 1     1    
##  5     76     8 1     1    
##  6     93    10 1     1    
##  7    106    12 1     1    
##  8    125    14 1     1    
##  9    149    16 1     1    
## 10    171    18 1     1    
## # ℹ 568 more rows
```
…
We could average the partial derivatives (slopes) for the observed data where for each observation we compare the predicted value with the `diet` switch flicked into different positions

.row[

.col-6[

.small[

``` r
cw
```

```
## # A tibble: 578 × 4
##    weight  time chick diet 
##     <dbl> <dbl> <fct> <fct>
##  1     42     0 1     1    
##  2     51     2 1     1    
##  3     59     4 1     1    
##  4     64     6 1     1    
##  5     76     8 1     1    
##  6     93    10 1     1    
##  7    106    12 1     1    
##  8    125    14 1     1    
##  9    149    16 1     1    
## 10    171    18 1     1    
## # ℹ 568 more rows
```
…
---
# Averaging: step 2

.row[
.col-6[
.small[

``` r
p_diet2
```

```
## # A tibble: 578 × 11
##     .row rowid rowidcf chick  time weight diet  .fitted    .se .lower_ci
##    <int> <int>   <int> <fct> <dbl>  <dbl> <fct>   <dbl>  <dbl>     <dbl>
##  1     1     1       1 1         0     42 2        43.6 0.102       35.7
##  2     2     2       2 1         2     51 2        51.9 0.0909      43.4
##  3     3     3       3 1         4     59 2        61.4 0.0849      52.0
##  4     4     4       4 1         6     64 2        75.4 0.0812      64.3
##  5     5     5       5 1         8     76 2        90.3 0.0793      77.3
##  6     6     6       6 1        10     93 2       109.  0.0800      92.9
##  7     7     7       7 1        12    106 2       132.  0.0822     112. 
##  8     8     8       8 1        14    125 2       154.  0.0862     130. 
##  9     9     9       9 1        16    149 2       186.  0.0921     155. 
## 10    10    10      10 1        18    171 2       224.  0.0995     185. 
## # ℹ 568 more rows
## # ℹ 1 more variable: .upper_ci <dbl>
```
]
]
.col-6[
.small[

``` r
p_diet2
```

```
## # A tibble: 578 × 11
##     .row rowid rowidcf chick  time weight diet  .fitted    .se .lower_ci
##    <int> <int>   <int> <fct> <dbl>  <dbl> <fct>   <dbl>  <dbl>     <dbl>
##  1     1     1       1 1         0     42 2        43.6 0.102       35.7
##  2     2     2       2 1         2     51 2        51.9 0.0909      43.4
##  3     3     3       3 1         4     59 2        61.4 0.0849      52.0
##  4     4     4       4 1         6     64 2        75.4 0.0812      64.3
##  5     5     5       5 1         8     76 2        90.3 0.0793      77.3
##  6     6     6       6 1        10     93 2       109.  0.0800      92.9
##  7     7     7       7 1        12    106 2       132.  0.0822     112. 
##  8     8     8       8 1        14    125 2       154.  0.0862     130. 
##  9     9     9       9 1        16    149 2       186.  0.0921     155. 
## 10    10    10      10 1        18    171 2       224.  0.0995     185. 
## # ℹ 568 more rows
## # ℹ 1 more variable: .upper_ci <dbl>
```
…
